…
## Reading the Browser History

Firefox stores the browser history in a SQLite database called
`places.sqlite`. The function `read_firefox_history()` reads the browser
history from this database and returns it as a tibble. The package
contains a small example database that is read in the following example:

``` r
library(browserhistory)
root_dir <- get_test_root_dir()
history <- read_browser_history(root_dir = root_dir)
history
#> # A tibble: 26 × 9
#>        id visit_date          url          title visit_count last_visit_date    
#>     <int> <dttm>              <chr>        <chr>       <int> <dttm>             
#>  1 524118 2024-05-24 17:42:17 https://duc… Duck…          18 2024-05-24 17:42:17
#>  2 524119 2024-05-24 17:42:28 https://duc… <NA>            5 2024-05-24 17:42:28
#>  3 524120 2024-05-24 17:42:29 https://duc… fire…          11 2024-05-24 17:42:29
#>  4 524121 2024-05-24 17:42:30 https://duc… fire…          13 2024-05-24 17:42:30
#>  5 524122 2024-05-24 17:42:51 https://blo… A fr…          13 2024-05-24 17:42:51
#>  6 524123 2024-05-24 17:43:02 https://www… Inte…           9 2024-05-24 17:43:02
#>  7 524124 2024-05-24 17:43:15 https://en.… <NA>            6 2024-05-24 17:43:15
#>  8 524125 2024-05-24 17:43:15 https://en.… Wiki…           8 2024-05-24 17:43:15
#>  9 524126 2024-05-24 17:43:22 https://en.… <NA>           20 2024-05-24 17:43:22
#> 10 524127 2024-05-24 17:43:22 https://en.… <NA>           15 2024-05-24 17:43:22
#> # ℹ 16 more rows
#> # ℹ 3 more variables: description <chr>, prefix <chr>, host <chr>
```
…
``` r
guess_root_dir()
#> [1] "~/snap/firefox/common/.mozilla/firefox"
```

Most of the functions that take a root directory as input use
`guess_root_dir()` as the default value. So, on some system, it will be
enough to simply call `read_browser_history()` without any inputs to get
a result:

``` r
read_browser_history()
#> # A tibble: 26 × 9
#>        id visit_date          url          title visit_count last_visit_date    
#>     <int> <dttm>              <chr>        <chr>       <int> <dttm>             
#>  1 524118 2024-05-24 17:42:17 https://duc… Duck…          18 2024-05-24 17:42:17
#>  2 524119 2024-05-24 17:42:28 https://duc… <NA>            5 2024-05-24 17:42:28
#>  3 524120 2024-05-24 17:42:29 https://duc… fire…          11 2024-05-24 17:42:29
#>  4 524121 2024-05-24 17:42:30 https://duc… fire…          13 2024-05-24 17:42:30
#>  5 524122 2024-05-24 17:42:51 https://blo… A fr…          13 2024-05-24 17:42:51
#>  6 524123 2024-05-24 17:43:02 https://www… Inte…           9 2024-05-24 17:43:02
#>  7 524124 2024-05-24 17:43:15 https://en.… <NA>            6 2024-05-24 17:43:15
#>  8 524125 2024-05-24 17:43:15 https://en.… Wiki…           8 2024-05-24 17:43:15
#>  9 524126 2024-05-24 17:43:22 https://en.… <NA>           20 2024-05-24 17:43:22
#> 10 524127 2024-05-24 17:43:22 https://en.… <NA>           15 2024-05-24 17:43:22
#> # ℹ 16 more rows
#> # ℹ 3 more variables: description <chr>, prefix <chr>, host <chr>
```
…
`read_firefox_history()` will automatically select the default profile,
but when there are several profiles and you want to read a different
one, you have to pass the name of the profile folder to the `profile`
argument as follows:

``` r
history <- read_browser_history(root_dir = root_dir, profile = "test_profile")
history
#> # A tibble: 26 × 9
#>        id visit_date          url          title visit_count last_visit_date    
#>     <int> <dttm>              <chr>        <chr>       <int> <dttm>             
#>  1 524118 2024-05-24 17:42:17 https://duc… Duck…          18 2024-05-24 17:42:17
#>  2 524119 2024-05-24 17:42:28 https://duc… <NA>            5 2024-05-24 17:42:28
#>  3 524120 2024-05-24 17:42:29 https://duc… fire…          11 2024-05-24 17:42:29
#>  4 524121 2024-05-24 17:42:30 https://duc… fire…          13 2024-05-24 17:42:30
#>  5 524122 2024-05-24 17:42:51 https://blo… A fr…          13 2024-05-24 17:42:51
#>  6 524123 2024-05-24 17:43:02 https://www… Inte…           9 2024-05-24 17:43:02
#>  7 524124 2024-05-24 17:43:15 https://en.… <NA>            6 2024-05-24 17:43:15
#>  8 524125 2024-05-24 17:43:15 https://en.… Wiki…           8 2024-05-24 17:43:15
#>  9 524126 2024-05-24 17:43:22 https://en.… <NA>           20 2024-05-24 17:43:22
#> 10 524127 2024-05-24 17:43:22 https://en.… <NA>           15 2024-05-24 17:43:22
#> # ℹ 16 more rows
#> # ℹ 3 more variables: description <chr>, prefix <chr>, host <chr>
```
…
